{
    "cid": "",
    "contact_id": "",
    "account_id": "0011k00000dfNaUAAU",
    "emlid": "",
    "mobileid": "",
    "profile_id": "a58ee634-48d6-4004-bdf4-8c609044ec13",
    "profile_mkt": "MJNUSAC",
    "oid": "005E0000005mR8TIAU",
    "profile": {
        "ProfileId": "436609b1-1cb8-4680-a58b-e6d0f4cf1a23",
        "IndividualId": 4020009163972,
        "BrandOrgCode": "MJNUSAC",
        "FirstName": "Matthew",
        "LastName": "Domizio",
        "IndividualAddressId": "ff435618-bcdf-4285-a50f-95b856e5aaac",
        "AddressLine1": "4921 HOELSCHER DR",
        "City": "EVANSVILLE",
        "State": "IN",
        "CountryCode": "USA",
        "PostalCode": "47712-4329",
        "StandardizedPostalCode": "47712-4329",
        "JsonExternalData": {
            "AddressLine5": "",
            "SrcAddressLine5": "",
            "AddressRemarks": "",
            "AddressLine4": "",
            "SrcAddressLine4": "",
            "SynonymName": "",
            "FullName": "Matthew Domizio",
            "IndividualId": 4020009163972,
            "Status": "A",
            "OrigAccountSourceCode": "USASVCLDC",
            "OrigDate": "2019-12-04T16:16:30.000000Z",
            "SrcPrefix": "",
            "PrefContactTypeCode": "",
            "CaregiverStatusCode": "I",
            "CaregiverStatusDetailCode": "4",
            "DoNotContactFlag": "",
            "GenderInferredFlag": "",
            "SrcFirstName": "",
            "SrcLastName": "",
            "SrcMiddleName": "",
            "SrcSuffix": "",
            "PrefLanguageCode": "ENG",
            "ResponderFlag": "",
            "CheckResponseFlag": "",
            "SurvResponseFlag": "",
            "SelfEnrollSrcFlag": "",
            "MjnSrcFlag": "",
            "PurchaserFlag": "",
            "UserFlag": "",
            "EngagerFlag": "",
            "IndividualTypeCode": "",
            "ProcessStatus": "",
            "CustomHHID": "47928479579214771200100000000000",
            "OrigEnrllAccountSourceCode": "USASVCLDC",
            "BrandOrgCode": "MJNUSAC",
            "SrcGenderCd": "",
            "SrcFicoId": "",
            "ActivityDate": "2020-04-08T09:16:14.000000Z",
            "ReferralCode": "",
            "WicStatus": "",
            "SelfReportedWicFlag": "",
            "ForcedChildGroupId": 0,
            "Specialty": "",
            "SubSpecialty": "",
            "ChildGroupId": 5026768,
            "Zip4": "4329",
            "NuclearOptOutFlag": "",
            "NuclearOptOutAccountSourceCode": "",
            "NuclearOptOutSource": "",
            "BestChildRecords": [
                {
                    "ChildId": 5965154,
                    "ActivityDate": "3/23/2020 3:58:06 PM",
                    "AdoptionFlag": "N",
                    "BirthDueDate": "2018-05-11T00:00:00.000000Z",
                    "CaregiverTypeCode": "FATHER",
                    "ChildFirstName": "",
                    "ChildGroupId": 5026768,
                    "ChildLastName": "",
                    "ChildMiddleName": "",
                    "ChildSetId": 5965154,
                    "ChildStatusCode": "A",
                    "ChildStatusDetailCode": "8",
                    "CrcChildAcctId": "",
                    "CtsChildId": "",
                    "CtsRespFlag": "",
                    "DerivedWicMdlUsed": "",
                    "EverWicFlag": "N",
                    "FormulaInfer": "",
                    "FosterFlag": "",
                    "GenderCode": "",
                    "HospitalId": "",
                    "InferredHospitalIdFlag": "",
                    "MarketSegmentCode": "",
                    "MbChildNum": 1,
                    "OrigAccountSourceCode": "USASVCLDC",
                    "OrigSrcDate": "2018-09-20T20:05:57.000000Z",
                    "PreferredBrand": "EAR",
                    "PreferredProduct": "",
                    "PrematureBirthFlag": "N",
                    "PurchaseFlag": "",
                    "SelfSelectFlag": "",
                    "SpecialNeedsCode": "",
                    "StartDate": "",
                    "Status": "A",
                    "SynonymName": "",
                    "TargetModelCode": "",
                    "TargetModelStatus": "",
                    "WicStatus": "2",
                    "HcpProfileId": "",
                    "InactiveReasonCode": "",
                    "AgeOverrideFlag": "",
                    "PrimaryCaregiverFlag": "N",
                    "CtsFlag": "",
                    "PreferredCaregiverFlag": "",
                    "SalesRepNum": "5001659",
                    "SalesRepTerritory": "2708",
                    "SalesRepName": "Schall, Deborah",
                    "SalesRepPhone": "(812) 459-6793",
                    "SalesRepEmail": "debbie.schall@mjn.com",
                    "ForcedSecondChildFlag": "N",
                    "FeedingMethod": "FORMULA ONLY",
                    "Caregivers": [
                        {
                            "IndividualId": 4020008370472,
                            "CaregiverTypeCode": "FATHER",
                            "PrimaryCaregiverFlag": "N",
                            "CaregiverChildEnrollments": [
                                {
                                    "EnrollSubscriptionId": "8ccaf272-064d-41d8-8f44-12409465b49d",
                                    "SubscriptionDesc": "Enfamil Family Beginnings - Consumer",
                                    "EnrollDate": "2018-09-20T20:08:25.000000Z",
                                    "EnrollStatus": "Y",
                                    "StatusChangeDate": "2018-09-20T20:08:25.000000Z",
                                    "Status": "A",
                                    "ContentPreferences": [
                                        {
                                            "ContentPrefCode": "EFBREG",
                                            "PrefChangeDate": "2018-09-20T20:08:25.000000Z",
                                            "ContentPrefValue": "Y",
                                            "DataSourceCode": "MJCRC",
                                            "DataSourceDescription": "MJN CRC (VIA CDP API)",
                                            "ContentPrefDesc": "Enfamil Family Beginnings - Regular"
                                        }
                                    ],
                                    "ChildEnrollmentId": "fa974fa4-7b07-4182-a110-0d00e1ed162d",
                                    "AccountSourceCode": "USASVCLDC"
                                }
                            ],
                            "$$hashKey": "object:66"
                        },
                        {
                            "IndividualId": 4020009094073,
                            "CaregiverTypeCode": "MOTHER",
                            "PrimaryCaregiverFlag": "Y",
                            "CaregiverChildEnrollments": [],
                            "$$hashKey": "object:67"
                        },
                        {
                            "IndividualId": 4020009163972,
                            "CaregiverTypeCode": "FATHER",
                            "PrimaryCaregiverFlag": "N",
                            "CaregiverChildEnrollments": [],
                            "$$hashKey": "object:68"
                        }
                    ],
                    "MultiBirthInd": 1,
                    "HospitalName": "",
                    "HospitalCity": "",
                    "HospitalState": "",
                    "FeedingIssue": "",
                    "SalesRepTerritorty": "2708",
                    "BirthDate": "2018-05-11T00:00:00.000000Z",
                    "hcpname": "Empty HCP ID",
                    "hospitalname": "Empty Hospital ID",
                    "productname": "",
                    "$$hashKey": "object:43"
                }
            ],
            "Profiles": [
                {
                    "ProfileId": "a58ee634-48d6-4004-bdf4-8c609044ec13",
                    "IndividualId": 4020009163972,
                    "HouseholdId": "4220010110847",
                    "SourcePhoneNumber": "",
                    "SourceEmailAddress": "",
                    "SourceFirstName": "Matthew",
                    "SourceLastName": "Domizio",
                    "SourcePostalCode": "47712-4329",
                    "SourceCountryCode": "USA",
                    "SourceStateCode": "IN",
                    "SourceCity": "Evansville",
                    "Prefix": "",
                    "FirstName": "Matthew",
                    "MiddleInit": "",
                    "LastName": "Domizio",
                    "Suffix": "",
                    "PhoneNumber": "",
                    "EmailAddress": "",
                    "City": "EVANSVILLE",
                    "StateCode": "IN",
                    "CountryCode": "USA",
                    "PostalCode": "47712-4329",
                    "CardNumber": "0030L00001xcWhNQAU",
                    "ProgramCode": "MJNUSAC",
                    "EnrollmentStatus": "A",
                    "Status": "A",
                    "AccountSourceCode": "USASVCLDC",
                    "SourceAccountNumber": "0030L00001xcWhNQAU",
                    "BrandOrgCode": "MJNUSAC",
                    "ActivityDate": "2020-03-23T15:58:06.000000Z",
                    "UpdateFileId": 0,
                    "UpdateRecordNumber": 1440155835,
                    "GamerAlias": "",
                    "GamerAvatar": "",
                    "CreateUser": "MDJN_SFNMI",
                    "CreateDate": "2019-12-04T16:16:40.000000Z",
                    "UpdateUser": "FS_USER",
                    "UpdateDate": "2020-03-24T04:16:57.000000Z",
                    "JsonExternalData": [
                        {
                            "ProfileId": "a58ee634-48d6-4004-bdf4-8c609044ec13",
                            "LoyaltyUserId": "",
                            "CaregiverStatusDetailCode": "",
                            "ExpectingInd": "",
                            "GovernmentID": "",
                            "SynonymName": "",
                            "FullName": "Matthew Domizio",
                            "PreferredBrand": "",
                            "PreferredProduct": "",
                            "AgreeToCookiesDate": "0001-01-01T00:00:00.000000Z",
                            "AgreePrivacyPolicyDate": "0001-01-01T00:00:00.000000Z",
                            "AgreeToTermsCondDate": "0001-01-01T00:00:00.000000Z",
                            "Ethnicity": "",
                            "PrefSpokenLanguage": "English",
                            "MomStatus": "",
                            "ChildCount": "",
                            "HcpLicenseType": "",
                            "HcpLicenseNumber": "",
                            "TerritoryCode": "",
                            "WicStatus": "",
                            "SelfReportedWicFlag": "",
                            "DataSourceCode": "MJCRC",
                            "AgreeSampleReqRules": "",
                            "DocumentNumber": "",
                            "Remark": "",
                            "ThirdPartyConsentInd": "",
                            "SubSpecialty": "",
                            "Specialty": "",
                            "ForcedChildGroupId": "5026768",
                            "HouseholdSize": null,
                            "UpcBarcode": "",
                            "AnnualFamilyIncome": "",
                            "HighestEducationLevel": "",
                            "Industry": "",
                            "InitialReferrer": "",
                            "IpAddress": "",
                            "Occupation": "",
                            "ExpireDate": null,
                            "ProspectTypeCode": "",
                            "Children": [
                                {
                                    "ProfileChildId": "e36ca92f-3384-46b1-b5bc-60ab8b5ed1ee",
                                    "ProfileId": "a58ee634-48d6-4004-bdf4-8c609044ec13",
                                    "ChildId": "5965154",
                                    "BirthDate": "2018-09-15T00:00:00.000000Z",
                                    "FirstName": "",
                                    "MiddleName": "",
                                    "LastName": "",
                                    "GenderCode": "",
                                    "FeedingMethod": "",
                                    "AdoptionFlag": "",
                                    "FosterFlag": "",
                                    "MultiBirthInd": "1",
                                    "PrematureBirthFlag": "",
                                    "TerritoryCode": "",
                                    "Batch": "",
                                    "SrcIrmChildId": "",
                                    "ActivityDate": "2019-12-04T16:16:31.000000Z",
                                    "SynonymName": "",
                                    "CaregiverTypeCode": "FATHER",
                                    "PreferredBrand": "",
                                    "PreferredProduct": "",
                                    "HospitalId": "",
                                    "HcpProfileId": "",
                                    "ForcedSecondChildFlag": "N",
                                    "ChildStatusDetailCode": "11",
                                    "Status": "I",
                                    "WicStatus": "2",
                                    "SelfReportedWicFlag": "",
                                    "SalesRepNum": "",
                                    "SalesRepTerritory": "",
                                    "HospitalName": "",
                                    "HospitalCity": "",
                                    "HospitalState": "",
                                    "DataSourceCode": "MJCRC",
                                    "MultiBirthChildNum": 1,
                                    "SrcChildId": "",
                                    "FeedingIssue": "",
                                    "ChildEnrollments": []
                                },
                                {
                                    "ProfileChildId": "b99ebf0a-7be6-49b3-af30-5ffc90f09e65",
                                    "ProfileId": "a58ee634-48d6-4004-bdf4-8c609044ec13",
                                    "ChildId": "5965154",
                                    "BirthDate": "2018-05-11T00:00:00.000000Z",
                                    "FirstName": "",
                                    "MiddleName": "",
                                    "LastName": "",
                                    "GenderCode": "",
                                    "FeedingMethod": "FORMULA ONLY",
                                    "AdoptionFlag": "N",
                                    "FosterFlag": "",
                                    "MultiBirthInd": "1",
                                    "PrematureBirthFlag": "N",
                                    "TerritoryCode": "",
                                    "Batch": "",
                                    "SrcIrmChildId": "",
                                    "ActivityDate": "2020-03-23T15:58:06.000000Z",
                                    "SynonymName": "",
                                    "CaregiverTypeCode": "",
                                    "PreferredBrand": "EAR",
                                    "PreferredProduct": "",
                                    "HospitalId": "",
                                    "HcpProfileId": "",
                                    "ForcedSecondChildFlag": "N",
                                    "ChildStatusDetailCode": "8",
                                    "Status": "A",
                                    "WicStatus": "2",
                                    "SelfReportedWicFlag": "",
                                    "SalesRepNum": "",
                                    "SalesRepTerritory": "",
                                    "HospitalName": "",
                                    "HospitalCity": "",
                                    "HospitalState": "",
                                    "DataSourceCode": "MJCRC",
                                    "MultiBirthChildNum": 1,
                                    "SrcChildId": "",
                                    "FeedingIssue": "",
                                    "ChildEnrollments": []
                                }
                            ],
                            "ProfileAltIdentifiers": [],
                            "ProfileSubscriptions": null,
                            "ProfileActivity": [
                                {
                                    "ActivityId": "77b08087-dd08-406c-8fd1-6ad743d3dd7b",
                                    "ActivityInput": "{}",
                                    "ProfileId": "a58ee634-48d6-4004-bdf4-8c609044ec13",
                                    "ActivityType": "EDIT PROFILE",
                                    "Status": "A",
                                    "CreateUser": "MDJN_SFNMI",
                                    "CreateDate": "2019-12-04T16:16:41.004230Z",
                                    "UpdateUser": "MDJN_SFNMI",
                                    "UpdateDate": "2019-12-04T16:16:41.004230Z",
                                    "JsonExternalData": {
                                        "CustomerType": "",
                                        "ReasonPrimary": "",
                                        "ReasonLevel2": "Robert Domizio",
                                        "ReasonLevel3": "bobbydomizio@gmail.com",
                                        "ReasonLevel4": "4921 Hoelscher Dr",
                                        "ProfileChildId": "",
                                        "CDPAutoGenerateInd": "",
                                        "AddressLine1": "",
                                        "AddressLine2": "",
                                        "AddressLine3": "",
                                        "AddressLine4": "",
                                        "AddressLine5": "",
                                        "City": "",
                                        "StateCode": "",
                                        "PostalCode": "",
                                        "CountryCode": "",
                                        "AddressRemarks": "",
                                        "DataSourceCode": "",
                                        "ActivityDate": "2019-12-04T16:16:30.000000Z",
                                        "SampleRequested": "",
                                        "IPAddress": "",
                                        "FulfillmentRequested": false,
                                        "Products": [],
                                        "CsProfileUtmAttrIds": [],
                                        "ChildEnrollmentIds": []
                                    }
                                },
                                {
                                    "ActivityId": "ef0f57d1-684a-4aeb-a19d-c299894d536d",
                                    "ActivityInput": "{}",
                                    "ProfileId": "a58ee634-48d6-4004-bdf4-8c609044ec13",
                                    "ActivityType": "ADD CHILD",
                                    "Status": "A",
                                    "CreateUser": "MDJN_SFNMI",
                                    "CreateDate": "2019-12-04T16:16:58.270599Z",
                                    "UpdateUser": "MDJN_SFNMI",
                                    "UpdateDate": "2019-12-04T16:16:58.270599Z",
                                    "JsonExternalData": {
                                        "CustomerType": "",
                                        "ReasonPrimary": "Child - 9/15/2018",
                                        "ReasonLevel2": "9/15/2018",
                                        "ReasonLevel3": "WIC - No",
                                        "ReasonLevel4": "",
                                        "ProfileChildId": "",
                                        "CDPAutoGenerateInd": "",
                                        "AddressLine1": "",
                                        "AddressLine2": "",
                                        "AddressLine3": "",
                                        "AddressLine4": "",
                                        "AddressLine5": "",
                                        "City": "",
                                        "StateCode": "",
                                        "PostalCode": "",
                                        "CountryCode": "",
                                        "AddressRemarks": "",
                                        "DataSourceCode": "",
                                        "ActivityDate": "2019-12-04T16:16:31.000000Z",
                                        "SampleRequested": "",
                                        "IPAddress": "",
                                        "FulfillmentRequested": false,
                                        "Products": [],
                                        "CsProfileUtmAttrIds": [],
                                        "ChildEnrollmentIds": []
                                    }
                                },
                                {
                                    "ActivityId": "dd80afa6-bddf-47bd-947b-21ff7a61f732",
                                    "ActivityInput": "{}",
                                    "ProfileId": "a58ee634-48d6-4004-bdf4-8c609044ec13",
                                    "ActivityType": "CG REMOVE",
                                    "Status": "A",
                                    "CreateUser": "MDJN_SFNMI",
                                    "CreateDate": "2020-02-04T16:05:09.796231Z",
                                    "UpdateUser": "MDJN_SFNMI",
                                    "UpdateDate": "2020-02-04T16:05:09.796231Z",
                                    "JsonExternalData": {
                                        "CustomerType": "",
                                        "ReasonPrimary": "Request To Be Removed",
                                        "ReasonLevel2": "",
                                        "ReasonLevel3": "",
                                        "ReasonLevel4": "",
                                        "ProfileChildId": "",
                                        "CDPAutoGenerateInd": "",
                                        "AddressLine1": "",
                                        "AddressLine2": "",
                                        "AddressLine3": "",
                                        "AddressLine4": "",
                                        "AddressLine5": "",
                                        "City": "",
                                        "StateCode": "",
                                        "PostalCode": "",
                                        "CountryCode": "",
                                        "AddressRemarks": "",
                                        "DataSourceCode": "",
                                        "ActivityDate": "2020-02-04T16:04:46.000000Z",
                                        "SampleRequested": "",
                                        "IPAddress": "",
                                        "FulfillmentRequested": false,
                                        "Products": [],
                                        "CsProfileUtmAttrIds": [],
                                        "ChildEnrollmentIds": []
                                    }
                                },
                                {
                                    "ActivityId": "64e3ea48-a8c1-4d4a-92f5-706ee1dfecaf",
                                    "ActivityInput": "{}",
                                    "ProfileId": "a58ee634-48d6-4004-bdf4-8c609044ec13",
                                    "ActivityType": "EDIT CHILD",
                                    "Status": "A",
                                    "CreateUser": "MDJN_SFNMI",
                                    "CreateDate": "2020-03-23T15:58:35.797441Z",
                                    "UpdateUser": "MDJN_SFNMI",
                                    "UpdateDate": "2020-03-23T15:58:35.797441Z",
                                    "JsonExternalData": {
                                        "CustomerType": "",
                                        "ReasonPrimary": "Child - 5/11/2018 - 1",
                                        "ReasonLevel2": "5/11/2018",
                                        "ReasonLevel3": "WIC - No",
                                        "ReasonLevel4": "Formula only",
                                        "ProfileChildId": "",
                                        "CDPAutoGenerateInd": "",
                                        "AddressLine1": "",
                                        "AddressLine2": "",
                                        "AddressLine3": "",
                                        "AddressLine4": "",
                                        "AddressLine5": "",
                                        "City": "",
                                        "StateCode": "",
                                        "PostalCode": "",
                                        "CountryCode": "",
                                        "AddressRemarks": "",
                                        "DataSourceCode": "",
                                        "ActivityDate": "2020-03-23T15:58:06.000000Z",
                                        "SampleRequested": "",
                                        "IPAddress": "",
                                        "FulfillmentRequested": false,
                                        "Products": [],
                                        "CsProfileUtmAttrIds": [],
                                        "ChildEnrollmentIds": []
                                    }
                                }
                            ],
                            "SurveyProfileResponses": [],
                            "UtmAttributes": [],
                            "UnmappedAttributes": null,
                            "ProfileItemList": [],
                            "Agreements": [],
                            "Devices": []
                        }
                    ],
                    "pref_brand": "",
                    "pref_prod": "",
                    "mom_status": ""
                },
                {
                    "ProfileId": "436609b1-1cb8-4680-a58b-e6d0f4cf1a23",
                    "IndividualId": 4020009163972,
                    "HouseholdId": "4220010110847",
                    "SourcePhoneNumber": "",
                    "SourceEmailAddress": "",
                    "SourceFirstName": "Matthew",
                    "SourceLastName": "Domizio",
                    "SourcePostalCode": "47712-4329",
                    "SourceCountryCode": "USA",
                    "SourceStateCode": "IN",
                    "SourceCity": "Evansville",
                    "Prefix": "",
                    "FirstName": "Matthew",
                    "MiddleInit": "",
                    "LastName": "Domizio",
                    "Suffix": "",
                    "PhoneNumber": "",
                    "EmailAddress": "",
                    "City": "EVANSVILLE",
                    "StateCode": "IN",
                    "CountryCode": "USA",
                    "PostalCode": "47712-4329",
                    "CardNumber": "0031k00000Uu0nuAAB",
                    "ProgramCode": "MJNUSAC",
                    "EnrollmentStatus": "A",
                    "Status": "A",
                    "AccountSourceCode": "USASVCLDC",
                    "SourceAccountNumber": "0031k00000Uu0nuAAB",
                    "BrandOrgCode": "MJNUSAC",
                    "ActivityDate": "2020-04-08T09:16:14.000000Z",
                    "UpdateFileId": 0,
                    "UpdateRecordNumber": 1456091656,
                    "GamerAlias": "",
                    "GamerAvatar": "",
                    "CreateUser": "MDJN_SFNMI",
                    "CreateDate": "2020-04-08T09:16:26.000000Z",
                    "UpdateUser": "FS_USER",
                    "UpdateDate": "2020-04-08T11:10:40.000000Z",
                    "JsonExternalData": [
                        {
                            "ProfileId": "436609b1-1cb8-4680-a58b-e6d0f4cf1a23",
                            "LoyaltyUserId": "",
                            "CaregiverStatusDetailCode": "",
                            "ExpectingInd": "",
                            "GovernmentID": "",
                            "SynonymName": "",
                            "FullName": "Matthew Domizio",
                            "PreferredBrand": "",
                            "PreferredProduct": "",
                            "AgreeToCookiesDate": "0001-01-01T00:00:00.000000Z",
                            "AgreePrivacyPolicyDate": "0001-01-01T00:00:00.000000Z",
                            "AgreeToTermsCondDate": "0001-01-01T00:00:00.000000Z",
                            "Ethnicity": "",
                            "PrefSpokenLanguage": "English",
                            "MomStatus": "",
                            "ChildCount": "",
                            "HcpLicenseType": "",
                            "HcpLicenseNumber": "",
                            "TerritoryCode": "",
                            "WicStatus": "",
                            "SelfReportedWicFlag": "",
                            "DataSourceCode": "MJCRC",
                            "AgreeSampleReqRules": "",
                            "DocumentNumber": "",
                            "Remark": "",
                            "ThirdPartyConsentInd": "",
                            "SubSpecialty": "",
                            "Specialty": "",
                            "ForcedChildGroupId": "",
                            "HouseholdSize": null,
                            "UpcBarcode": "",
                            "AnnualFamilyIncome": "",
                            "HighestEducationLevel": "",
                            "Industry": "",
                            "InitialReferrer": "",
                            "IpAddress": "",
                            "Occupation": "",
                            "ExpireDate": null,
                            "ProspectTypeCode": "",
                            "Children": [],
                            "ProfileAltIdentifiers": [],
                            "ProfileSubscriptions": null,
                            "ProfileActivity": [
                                {
                                    "ActivityId": "77c8a2ae-50a9-432c-abe9-3af44d58255a",
                                    "ActivityInput": "{}",
                                    "ProfileId": "436609b1-1cb8-4680-a58b-e6d0f4cf1a23",
                                    "ActivityType": "EDIT PROFILE",
                                    "Status": "A",
                                    "CreateUser": "MDJN_SFNMI",
                                    "CreateDate": "2020-04-08T09:16:26.558815Z",
                                    "UpdateUser": "MDJN_SFNMI",
                                    "UpdateDate": "2020-04-08T09:16:26.558815Z",
                                    "JsonExternalData": {
                                        "CustomerType": "",
                                        "ReasonPrimary": "",
                                        "ReasonLevel2": "Matthew Domizio",
                                        "ReasonLevel3": "",
                                        "ReasonLevel4": "4921 Hoelscher Dr",
                                        "ProfileChildId": "",
                                        "CDPAutoGenerateInd": "",
                                        "AddressLine1": "",
                                        "AddressLine2": "",
                                        "AddressLine3": "",
                                        "AddressLine4": "",
                                        "AddressLine5": "",
                                        "City": "",
                                        "StateCode": "",
                                        "PostalCode": "",
                                        "CountryCode": "",
                                        "AddressRemarks": "",
                                        "DataSourceCode": "",
                                        "ActivityDate": "2020-04-08T09:16:14.000000Z",
                                        "SampleRequested": "",
                                        "IPAddress": "",
                                        "FulfillmentRequested": false,
                                        "Products": [],
                                        "CsProfileUtmAttrIds": [],
                                        "ChildEnrollmentIds": []
                                    }
                                }
                            ],
                            "SurveyProfileResponses": [],
                            "UtmAttributes": [],
                            "UnmappedAttributes": null,
                            "ProfileItemList": [],
                            "Agreements": [],
                            "Devices": []
                        }
                    ]
                }
            ],
            "PromotionHistories": [],
            "PromotionResponses": [],
            "ChildGroupIndividuals": [
                {
                    "IndividualId": 4020008370472,
                    "FirstName": "Robert",
                    "LastName": "Domizio"
                },
                {
                    "IndividualId": 4020009163972,
                    "FirstName": "Matthew",
                    "LastName": "Domizio"
                },
                {
                    "IndividualId": 4020009094073,
                    "FirstName": "Meg",
                    "LastName": "Domizio"
                }
            ]
        },
        "asc": "USASVCLDC",
        "cityname": "EVANSVILLE",
        "extra_data": {
            "AddressLine5": "",
            "SrcAddressLine5": "",
            "AddressRemarks": "",
            "AddressLine4": "",
            "SrcAddressLine4": "",
            "SynonymName": "",
            "FullName": "Matthew Domizio",
            "IndividualId": 4020009163972,
            "Status": "A",
            "OrigAccountSourceCode": "USASVCLDC",
            "OrigDate": "2019-12-04T16:16:30.000000Z",
            "SrcPrefix": "",
            "PrefContactTypeCode": "",
            "CaregiverStatusCode": "I",
            "CaregiverStatusDetailCode": "4",
            "DoNotContactFlag": "",
            "GenderInferredFlag": "",
            "SrcFirstName": "",
            "SrcLastName": "",
            "SrcMiddleName": "",
            "SrcSuffix": "",
            "PrefLanguageCode": "ENG",
            "ResponderFlag": "",
            "CheckResponseFlag": "",
            "SurvResponseFlag": "",
            "SelfEnrollSrcFlag": "",
            "MjnSrcFlag": "",
            "PurchaserFlag": "",
            "UserFlag": "",
            "EngagerFlag": "",
            "IndividualTypeCode": "",
            "ProcessStatus": "",
            "CustomHHID": "47928479579214771200100000000000",
            "OrigEnrllAccountSourceCode": "USASVCLDC",
            "BrandOrgCode": "MJNUSAC",
            "SrcGenderCd": "",
            "SrcFicoId": "",
            "ActivityDate": "2020-04-08T09:16:14.000000Z",
            "ReferralCode": "",
            "WicStatus": "",
            "SelfReportedWicFlag": "",
            "ForcedChildGroupId": 0,
            "Specialty": "",
            "SubSpecialty": "",
            "ChildGroupId": 5026768,
            "Zip4": "4329",
            "NuclearOptOutFlag": "",
            "NuclearOptOutAccountSourceCode": "",
            "NuclearOptOutSource": "",
            "BestChildRecords": [
                {
                    "ChildId": 5965154,
                    "ActivityDate": "3/23/2020 3:58:06 PM",
                    "AdoptionFlag": "N",
                    "BirthDueDate": "2018-05-11T00:00:00.000000Z",
                    "CaregiverTypeCode": "FATHER",
                    "ChildFirstName": "",
                    "ChildGroupId": 5026768,
                    "ChildLastName": "",
                    "ChildMiddleName": "",
                    "ChildSetId": 5965154,
                    "ChildStatusCode": "A",
                    "ChildStatusDetailCode": "8",
                    "CrcChildAcctId": "",
                    "CtsChildId": "",
                    "CtsRespFlag": "",
                    "DerivedWicMdlUsed": "",
                    "EverWicFlag": "N",
                    "FormulaInfer": "",
                    "FosterFlag": "",
                    "GenderCode": "",
                    "HospitalId": "",
                    "InferredHospitalIdFlag": "",
                    "MarketSegmentCode": "",
                    "MbChildNum": 1,
                    "OrigAccountSourceCode": "USASVCLDC",
                    "OrigSrcDate": "2018-09-20T20:05:57.000000Z",
                    "PreferredBrand": "EAR",
                    "PreferredProduct": "",
                    "PrematureBirthFlag": "N",
                    "PurchaseFlag": "",
                    "SelfSelectFlag": "",
                    "SpecialNeedsCode": "",
                    "StartDate": "",
                    "Status": "A",
                    "SynonymName": "",
                    "TargetModelCode": "",
                    "TargetModelStatus": "",
                    "WicStatus": "2",
                    "HcpProfileId": "",
                    "InactiveReasonCode": "",
                    "AgeOverrideFlag": "",
                    "PrimaryCaregiverFlag": "N",
                    "CtsFlag": "",
                    "PreferredCaregiverFlag": "",
                    "SalesRepNum": "5001659",
                    "SalesRepTerritory": "2708",
                    "SalesRepName": "Schall, Deborah",
                    "SalesRepPhone": "(812) 459-6793",
                    "SalesRepEmail": "debbie.schall@mjn.com",
                    "ForcedSecondChildFlag": "N",
                    "FeedingMethod": "FORMULA ONLY",
                    "Caregivers": [
                        {
                            "IndividualId": 4020008370472,
                            "CaregiverTypeCode": "FATHER",
                            "PrimaryCaregiverFlag": "N",
                            "CaregiverChildEnrollments": [
                                {
                                    "EnrollSubscriptionId": "8ccaf272-064d-41d8-8f44-12409465b49d",
                                    "SubscriptionDesc": "Enfamil Family Beginnings - Consumer",
                                    "EnrollDate": "2018-09-20T20:08:25.000000Z",
                                    "EnrollStatus": "Y",
                                    "StatusChangeDate": "2018-09-20T20:08:25.000000Z",
                                    "Status": "A",
                                    "ContentPreferences": [
                                        {
                                            "ContentPrefCode": "EFBREG",
                                            "PrefChangeDate": "2018-09-20T20:08:25.000000Z",
                                            "ContentPrefValue": "Y",
                                            "DataSourceCode": "MJCRC",
                                            "DataSourceDescription": "MJN CRC (VIA CDP API)",
                                            "ContentPrefDesc": "Enfamil Family Beginnings - Regular"
                                        }
                                    ],
                                    "ChildEnrollmentId": "fa974fa4-7b07-4182-a110-0d00e1ed162d",
                                    "AccountSourceCode": "USASVCLDC"
                                }
                            ],
                            "$$hashKey": "object:66"
                        },
                        {
                            "IndividualId": 4020009094073,
                            "CaregiverTypeCode": "MOTHER",
                            "PrimaryCaregiverFlag": "Y",
                            "CaregiverChildEnrollments": [],
                            "$$hashKey": "object:67"
                        },
                        {
                            "IndividualId": 4020009163972,
                            "CaregiverTypeCode": "FATHER",
                            "PrimaryCaregiverFlag": "N",
                            "CaregiverChildEnrollments": [],
                            "$$hashKey": "object:68"
                        }
                    ],
                    "MultiBirthInd": 1,
                    "HospitalName": "",
                    "HospitalCity": "",
                    "HospitalState": "",
                    "FeedingIssue": "",
                    "SalesRepTerritorty": "2708",
                    "BirthDate": "2018-05-11T00:00:00.000000Z",
                    "hcpname": "Empty HCP ID",
                    "hospitalname": "Empty Hospital ID",
                    "productname": "",
                    "$$hashKey": "object:43"
                }
            ],
            "Profiles": [
                {
                    "ProfileId": "a58ee634-48d6-4004-bdf4-8c609044ec13",
                    "IndividualId": 4020009163972,
                    "HouseholdId": "4220010110847",
                    "SourcePhoneNumber": "",
                    "SourceEmailAddress": "",
                    "SourceFirstName": "Matthew",
                    "SourceLastName": "Domizio",
                    "SourcePostalCode": "47712-4329",
                    "SourceCountryCode": "USA",
                    "SourceStateCode": "IN",
                    "SourceCity": "Evansville",
                    "Prefix": "",
                    "FirstName": "Matthew",
                    "MiddleInit": "",
                    "LastName": "Domizio",
                    "Suffix": "",
                    "PhoneNumber": "",
                    "EmailAddress": "",
                    "City": "EVANSVILLE",
                    "StateCode": "IN",
                    "CountryCode": "USA",
                    "PostalCode": "47712-4329",
                    "CardNumber": "0030L00001xcWhNQAU",
                    "ProgramCode": "MJNUSAC",
                    "EnrollmentStatus": "A",
                    "Status": "A",
                    "AccountSourceCode": "USASVCLDC",
                    "SourceAccountNumber": "0030L00001xcWhNQAU",
                    "BrandOrgCode": "MJNUSAC",
                    "ActivityDate": "2020-03-23T15:58:06.000000Z",
                    "UpdateFileId": 0,
                    "UpdateRecordNumber": 1440155835,
                    "GamerAlias": "",
                    "GamerAvatar": "",
                    "CreateUser": "MDJN_SFNMI",
                    "CreateDate": "2019-12-04T16:16:40.000000Z",
                    "UpdateUser": "FS_USER",
                    "UpdateDate": "2020-03-24T04:16:57.000000Z",
                    "JsonExternalData": [
                        {
                            "ProfileId": "a58ee634-48d6-4004-bdf4-8c609044ec13",
                            "LoyaltyUserId": "",
                            "CaregiverStatusDetailCode": "",
                            "ExpectingInd": "",
                            "GovernmentID": "",
                            "SynonymName": "",
                            "FullName": "Matthew Domizio",
                            "PreferredBrand": "",
                            "PreferredProduct": "",
                            "AgreeToCookiesDate": "0001-01-01T00:00:00.000000Z",
                            "AgreePrivacyPolicyDate": "0001-01-01T00:00:00.000000Z",
                            "AgreeToTermsCondDate": "0001-01-01T00:00:00.000000Z",
                            "Ethnicity": "",
                            "PrefSpokenLanguage": "English",
                            "MomStatus": "",
                            "ChildCount": "",
                            "HcpLicenseType": "",
                            "HcpLicenseNumber": "",
                            "TerritoryCode": "",
                            "WicStatus": "",
                            "SelfReportedWicFlag": "",
                            "DataSourceCode": "MJCRC",
                            "AgreeSampleReqRules": "",
                            "DocumentNumber": "",
                            "Remark": "",
                            "ThirdPartyConsentInd": "",
                            "SubSpecialty": "",
                            "Specialty": "",
                            "ForcedChildGroupId": "5026768",
                            "HouseholdSize": null,
                            "UpcBarcode": "",
                            "AnnualFamilyIncome": "",
                            "HighestEducationLevel": "",
                            "Industry": "",
                            "InitialReferrer": "",
                            "IpAddress": "",
                            "Occupation": "",
                            "ExpireDate": null,
                            "ProspectTypeCode": "",
                            "Children": [
                                {
                                    "ProfileChildId": "e36ca92f-3384-46b1-b5bc-60ab8b5ed1ee",
                                    "ProfileId": "a58ee634-48d6-4004-bdf4-8c609044ec13",
                                    "ChildId": "5965154",
                                    "BirthDate": "2018-09-15T00:00:00.000000Z",
                                    "FirstName": "",
                                    "MiddleName": "",
                                    "LastName": "",
                                    "GenderCode": "",
                                    "FeedingMethod": "",
                                    "AdoptionFlag": "",
                                    "FosterFlag": "",
                                    "MultiBirthInd": "1",
                                    "PrematureBirthFlag": "",
                                    "TerritoryCode": "",
                                    "Batch": "",
                                    "SrcIrmChildId": "",
                                    "ActivityDate": "2019-12-04T16:16:31.000000Z",
                                    "SynonymName": "",
                                    "CaregiverTypeCode": "FATHER",
                                    "PreferredBrand": "",
                                    "PreferredProduct": "",
                                    "HospitalId": "",
                                    "HcpProfileId": "",
                                    "ForcedSecondChildFlag": "N",
                                    "ChildStatusDetailCode": "11",
                                    "Status": "I",
                                    "WicStatus": "2",
                                    "SelfReportedWicFlag": "",
                                    "SalesRepNum": "",
                                    "SalesRepTerritory": "",
                                    "HospitalName": "",
                                    "HospitalCity": "",
                                    "HospitalState": "",
                                    "DataSourceCode": "MJCRC",
                                    "MultiBirthChildNum": 1,
                                    "SrcChildId": "",
                                    "FeedingIssue": "",
                                    "ChildEnrollments": []
                                },
                                {
                                    "ProfileChildId": "b99ebf0a-7be6-49b3-af30-5ffc90f09e65",
                                    "ProfileId": "a58ee634-48d6-4004-bdf4-8c609044ec13",
                                    "ChildId": "5965154",
                                    "BirthDate": "2018-05-11T00:00:00.000000Z",
                                    "FirstName": "",
                                    "MiddleName": "",
                                    "LastName": "",
                                    "GenderCode": "",
                                    "FeedingMethod": "FORMULA ONLY",
                                    "AdoptionFlag": "N",
                                    "FosterFlag": "",
                                    "MultiBirthInd": "1",
                                    "PrematureBirthFlag": "N",
                                    "TerritoryCode": "",
                                    "Batch": "",
                                    "SrcIrmChildId": "",
                                    "ActivityDate": "2020-03-23T15:58:06.000000Z",
                                    "SynonymName": "",
                                    "CaregiverTypeCode": "",
                                    "PreferredBrand": "EAR",
                                    "PreferredProduct": "",
                                    "HospitalId": "",
                                    "HcpProfileId": "",
                                    "ForcedSecondChildFlag": "N",
                                    "ChildStatusDetailCode": "8",
                                    "Status": "A",
                                    "WicStatus": "2",
                                    "SelfReportedWicFlag": "",
                                    "SalesRepNum": "",
                                    "SalesRepTerritory": "",
                                    "HospitalName": "",
                                    "HospitalCity": "",
                                    "HospitalState": "",
                                    "DataSourceCode": "MJCRC",
                                    "MultiBirthChildNum": 1,
                                    "SrcChildId": "",
                                    "FeedingIssue": "",
                                    "ChildEnrollments": []
                                }
                            ],
                            "ProfileAltIdentifiers": [],
                            "ProfileSubscriptions": null,
                            "ProfileActivity": [
                                {
                                    "ActivityId": "77b08087-dd08-406c-8fd1-6ad743d3dd7b",
                                    "ActivityInput": "{}",
                                    "ProfileId": "a58ee634-48d6-4004-bdf4-8c609044ec13",
                                    "ActivityType": "EDIT PROFILE",
                                    "Status": "A",
                                    "CreateUser": "MDJN_SFNMI",
                                    "CreateDate": "2019-12-04T16:16:41.004230Z",
                                    "UpdateUser": "MDJN_SFNMI",
                                    "UpdateDate": "2019-12-04T16:16:41.004230Z",
                                    "JsonExternalData": {
                                        "CustomerType": "",
                                        "ReasonPrimary": "",
                                        "ReasonLevel2": "Robert Domizio",
                                        "ReasonLevel3": "bobbydomizio@gmail.com",
                                        "ReasonLevel4": "4921 Hoelscher Dr",
                                        "ProfileChildId": "",
                                        "CDPAutoGenerateInd": "",
                                        "AddressLine1": "",
                                        "AddressLine2": "",
                                        "AddressLine3": "",
                                        "AddressLine4": "",
                                        "AddressLine5": "",
                                        "City": "",
                                        "StateCode": "",
                                        "PostalCode": "",
                                        "CountryCode": "",
                                        "AddressRemarks": "",
                                        "DataSourceCode": "",
                                        "ActivityDate": "2019-12-04T16:16:30.000000Z",
                                        "SampleRequested": "",
                                        "IPAddress": "",
                                        "FulfillmentRequested": false,
                                        "Products": [],
                                        "CsProfileUtmAttrIds": [],
                                        "ChildEnrollmentIds": []
                                    }
                                },
                                {
                                    "ActivityId": "ef0f57d1-684a-4aeb-a19d-c299894d536d",
                                    "ActivityInput": "{}",
                                    "ProfileId": "a58ee634-48d6-4004-bdf4-8c609044ec13",
                                    "ActivityType": "ADD CHILD",
                                    "Status": "A",
                                    "CreateUser": "MDJN_SFNMI",
                                    "CreateDate": "2019-12-04T16:16:58.270599Z",
                                    "UpdateUser": "MDJN_SFNMI",
                                    "UpdateDate": "2019-12-04T16:16:58.270599Z",
                                    "JsonExternalData": {
                                        "CustomerType": "",
                                        "ReasonPrimary": "Child - 9/15/2018",
                                        "ReasonLevel2": "9/15/2018",
                                        "ReasonLevel3": "WIC - No",
                                        "ReasonLevel4": "",
                                        "ProfileChildId": "",
                                        "CDPAutoGenerateInd": "",
                                        "AddressLine1": "",
                                        "AddressLine2": "",
                                        "AddressLine3": "",
                                        "AddressLine4": "",
                                        "AddressLine5": "",
                                        "City": "",
                                        "StateCode": "",
                                        "PostalCode": "",
                                        "CountryCode": "",
                                        "AddressRemarks": "",
                                        "DataSourceCode": "",
                                        "ActivityDate": "2019-12-04T16:16:31.000000Z",
                                        "SampleRequested": "",
                                        "IPAddress": "",
                                        "FulfillmentRequested": false,
                                        "Products": [],
                                        "CsProfileUtmAttrIds": [],
                                        "ChildEnrollmentIds": []
                                    }
                                },
                                {
                                    "ActivityId": "dd80afa6-bddf-47bd-947b-21ff7a61f732",
                                    "ActivityInput": "{}",
                                    "ProfileId": "a58ee634-48d6-4004-bdf4-8c609044ec13",
                                    "ActivityType": "CG REMOVE",
                                    "Status": "A",
                                    "CreateUser": "MDJN_SFNMI",
                                    "CreateDate": "2020-02-04T16:05:09.796231Z",
                                    "UpdateUser": "MDJN_SFNMI",
                                    "UpdateDate": "2020-02-04T16:05:09.796231Z",
                                    "JsonExternalData": {
                                        "CustomerType": "",
                                        "ReasonPrimary": "Request To Be Removed",
                                        "ReasonLevel2": "",
                                        "ReasonLevel3": "",
                                        "ReasonLevel4": "",
                                        "ProfileChildId": "",
                                        "CDPAutoGenerateInd": "",
                                        "AddressLine1": "",
                                        "AddressLine2": "",
                                        "AddressLine3": "",
                                        "AddressLine4": "",
                                        "AddressLine5": "",
                                        "City": "",
                                        "StateCode": "",
                                        "PostalCode": "",
                                        "CountryCode": "",
                                        "AddressRemarks": "",
                                        "DataSourceCode": "",
                                        "ActivityDate": "2020-02-04T16:04:46.000000Z",
                                        "SampleRequested": "",
                                        "IPAddress": "",
                                        "FulfillmentRequested": false,
                                        "Products": [],
                                        "CsProfileUtmAttrIds": [],
                                        "ChildEnrollmentIds": []
                                    }
                                },
                                {
                                    "ActivityId": "64e3ea48-a8c1-4d4a-92f5-706ee1dfecaf",
                                    "ActivityInput": "{}",
                                    "ProfileId": "a58ee634-48d6-4004-bdf4-8c609044ec13",
                                    "ActivityType": "EDIT CHILD",
                                    "Status": "A",
                                    "CreateUser": "MDJN_SFNMI",
                                    "CreateDate": "2020-03-23T15:58:35.797441Z",
                                    "UpdateUser": "MDJN_SFNMI",
                                    "UpdateDate": "2020-03-23T15:58:35.797441Z",
                                    "JsonExternalData": {
                                        "CustomerType": "",
                                        "ReasonPrimary": "Child - 5/11/2018 - 1",
                                        "ReasonLevel2": "5/11/2018",
                                        "ReasonLevel3": "WIC - No",
                                        "ReasonLevel4": "Formula only",
                                        "ProfileChildId": "",
                                        "CDPAutoGenerateInd": "",
                                        "AddressLine1": "",
                                        "AddressLine2": "",
                                        "AddressLine3": "",
                                        "AddressLine4": "",
                                        "AddressLine5": "",
                                        "City": "",
                                        "StateCode": "",
                                        "PostalCode": "",
                                        "CountryCode": "",
                                        "AddressRemarks": "",
                                        "DataSourceCode": "",
                                        "ActivityDate": "2020-03-23T15:58:06.000000Z",
                                        "SampleRequested": "",
                                        "IPAddress": "",
                                        "FulfillmentRequested": false,
                                        "Products": [],
                                        "CsProfileUtmAttrIds": [],
                                        "ChildEnrollmentIds": []
                                    }
                                }
                            ],
                            "SurveyProfileResponses": [],
                            "UtmAttributes": [],
                            "UnmappedAttributes": null,
                            "ProfileItemList": [],
                            "Agreements": [],
                            "Devices": []
                        }
                    ],
                    "pref_brand": "",
                    "pref_prod": "",
                    "mom_status": ""
                },
                {
                    "ProfileId": "436609b1-1cb8-4680-a58b-e6d0f4cf1a23",
                    "IndividualId": 4020009163972,
                    "HouseholdId": "4220010110847",
                    "SourcePhoneNumber": "",
                    "SourceEmailAddress": "",
                    "SourceFirstName": "Matthew",
                    "SourceLastName": "Domizio",
                    "SourcePostalCode": "47712-4329",
                    "SourceCountryCode": "USA",
                    "SourceStateCode": "IN",
                    "SourceCity": "Evansville",
                    "Prefix": "",
                    "FirstName": "Matthew",
                    "MiddleInit": "",
                    "LastName": "Domizio",
                    "Suffix": "",
                    "PhoneNumber": "",
                    "EmailAddress": "",
                    "City": "EVANSVILLE",
                    "StateCode": "IN",
                    "CountryCode": "USA",
                    "PostalCode": "47712-4329",
                    "CardNumber": "0031k00000Uu0nuAAB",
                    "ProgramCode": "MJNUSAC",
                    "EnrollmentStatus": "A",
                    "Status": "A",
                    "AccountSourceCode": "USASVCLDC",
                    "SourceAccountNumber": "0031k00000Uu0nuAAB",
                    "BrandOrgCode": "MJNUSAC",
                    "ActivityDate": "2020-04-08T09:16:14.000000Z",
                    "UpdateFileId": 0,
                    "UpdateRecordNumber": 1456091656,
                    "GamerAlias": "",
                    "GamerAvatar": "",
                    "CreateUser": "MDJN_SFNMI",
                    "CreateDate": "2020-04-08T09:16:26.000000Z",
                    "UpdateUser": "FS_USER",
                    "UpdateDate": "2020-04-08T11:10:40.000000Z",
                    "JsonExternalData": [
                        {
                            "ProfileId": "436609b1-1cb8-4680-a58b-e6d0f4cf1a23",
                            "LoyaltyUserId": "",
                            "CaregiverStatusDetailCode": "",
                            "ExpectingInd": "",
                            "GovernmentID": "",
                            "SynonymName": "",
                            "FullName": "Matthew Domizio",
                            "PreferredBrand": "",
                            "PreferredProduct": "",
                            "AgreeToCookiesDate": "0001-01-01T00:00:00.000000Z",
                            "AgreePrivacyPolicyDate": "0001-01-01T00:00:00.000000Z",
                            "AgreeToTermsCondDate": "0001-01-01T00:00:00.000000Z",
                            "Ethnicity": "",
                            "PrefSpokenLanguage": "English",
                            "MomStatus": "",
                            "ChildCount": "",
                            "HcpLicenseType": "",
                            "HcpLicenseNumber": "",
                            "TerritoryCode": "",
                            "WicStatus": "",
                            "SelfReportedWicFlag": "",
                            "DataSourceCode": "MJCRC",
                            "AgreeSampleReqRules": "",
                            "DocumentNumber": "",
                            "Remark": "",
                            "ThirdPartyConsentInd": "",
                            "SubSpecialty": "",
                            "Specialty": "",
                            "ForcedChildGroupId": "",
                            "HouseholdSize": null,
                            "UpcBarcode": "",
                            "AnnualFamilyIncome": "",
                            "HighestEducationLevel": "",
                            "Industry": "",
                            "InitialReferrer": "",
                            "IpAddress": "",
                            "Occupation": "",
                            "ExpireDate": null,
                            "ProspectTypeCode": "",
                            "Children": [],
                            "ProfileAltIdentifiers": [],
                            "ProfileSubscriptions": null,
                            "ProfileActivity": [
                                {
                                    "ActivityId": "77c8a2ae-50a9-432c-abe9-3af44d58255a",
                                    "ActivityInput": "{}",
                                    "ProfileId": "436609b1-1cb8-4680-a58b-e6d0f4cf1a23",
                                    "ActivityType": "EDIT PROFILE",
                                    "Status": "A",
                                    "CreateUser": "MDJN_SFNMI",
                                    "CreateDate": "2020-04-08T09:16:26.558815Z",
                                    "UpdateUser": "MDJN_SFNMI",
                                    "UpdateDate": "2020-04-08T09:16:26.558815Z",
                                    "JsonExternalData": {
                                        "CustomerType": "",
                                        "ReasonPrimary": "",
                                        "ReasonLevel2": "Matthew Domizio",
                                        "ReasonLevel3": "",
                                        "ReasonLevel4": "4921 Hoelscher Dr",
                                        "ProfileChildId": "",
                                        "CDPAutoGenerateInd": "",
                                        "AddressLine1": "",
                                        "AddressLine2": "",
                                        "AddressLine3": "",
                                        "AddressLine4": "",
                                        "AddressLine5": "",
                                        "City": "",
                                        "StateCode": "",
                                        "PostalCode": "",
                                        "CountryCode": "",
                                        "AddressRemarks": "",
                                        "DataSourceCode": "",
                                        "ActivityDate": "2020-04-08T09:16:14.000000Z",
                                        "SampleRequested": "",
                                        "IPAddress": "",
                                        "FulfillmentRequested": false,
                                        "Products": [],
                                        "CsProfileUtmAttrIds": [],
                                        "ChildEnrollmentIds": []
                                    }
                                }
                            ],
                            "SurveyProfileResponses": [],
                            "UtmAttributes": [],
                            "UnmappedAttributes": null,
                            "ProfileItemList": [],
                            "Agreements": [],
                            "Devices": []
                        }
                    ]
                }
            ],
            "PromotionHistories": [],
            "PromotionResponses": [],
            "ChildGroupIndividuals": [
                {
                    "IndividualId": 4020008370472,
                    "FirstName": "Robert",
                    "LastName": "Domizio"
                },
                {
                    "IndividualId": 4020009163972,
                    "FirstName": "Matthew",
                    "LastName": "Domizio"
                },
                {
                    "IndividualId": 4020009094073,
                    "FirstName": "Meg",
                    "LastName": "Domizio"
                }
            ]
        }
    },
    "op": "upsert_contact"
}